<?xml version="1.0" encoding="utf-8"?>
<!-- Generator: Adobe Illustrator 19.2.1, SVG Export Plug-In . SVG Version: 6.00 Build 0)  -->
<svg version="1.1" id="Logo_x5F_horisontal_x5F_ready"
	 xmlns="http://www.w3.org/2000/svg" xmlns:xlink="http://www.w3.org/1999/xlink" x="0px" y="0px"
	 viewBox="0 0 954.31433 314.59885" style="enable-background:new 0 0 954.31433 314.59885;" xml:space="preserve">
<style type="text/css">
	.st0{fill:#022C6E;}
	.st1{display:none;}
	.st2{display:inline;}
	.st3{fill:#00D3AF;}
	.st4{fill:#45B3B6;}
	.st5{fill:#47B5B8;}
</style>
<g id="logo_6_">
	<g>
		<g>
			<path class="st0" d="M173.01962,2.06395C168.00394,0.71327,162.73038,0,157.28232,0
				c-16.15469-0.00001-30.84479,6.32071-41.72593,16.61749L17.77838,114.3951
				c-23.70447,23.70458-23.70451,62.14492-0.00011,85.84954l0.04557,0.03793c-3.21724-22.60435,3.73325-46.38486,20.87443-63.86734
				c0.17451-0.1897,0.35661-0.37939,0.53871-0.56155l37.1808-37.17309l22.23264-22.23253L173.01962,2.06395z"/>
		</g>
		<g>
			<path class="st0" d="M92.90876,204.67065c-5.01466,0.00009-10.04743-2.48154-13.07294-7.4214
				c-3.62658-5.92128-2.52042-13.60109,2.37968-18.52072l0.00002-0.00002c5.92156-5.94518,15.5444-5.95474,21.47778-0.02136
				l0.00002,0.00002c5.91879,5.91878,5.92594,15.5128,0.016,21.44041l-0.08029,0.08054
				C100.66727,203.18985,96.78805,204.66536,92.90876,204.67065z"/>
		</g>
		<g>
			<path class="st0" d="M264.59296,82.20957c5.68729,5.68731,10.0119,12.23327,12.96289,19.20837
				c1.00333,2.36605,1.85104,4.78058,2.53247,7.2325c0.1449,0.48833,0.27908,0.97662,0.39719,1.47026
				c0.49881,1.96908,0.90659,3.96501,1.20715,5.96101c0.76727,5.14545,0.87994,10.36604,0.3273,15.533
				c-0.10205,0.96031-0.22006,1.91537-0.3703,2.87044c-0.13397,0.8428-0.28494,1.6684-0.42349,2.44588
				c-0.1279,0.71768-0.28525,1.42628-0.4726,2.13081l0,0c-0.19843,0.86389-0.41837,1.71706-0.65979,2.57021
				c-0.02155,0.08574-0.04834,0.18771-0.07516,0.27898c-2.74719,9.5719-7.88724,18.59666-15.43109,26.14049
				c-1.4165,1.41649-2.89206,2.75243-4.40512,3.98647l0.21469,0.21471L149.42854,283.2103l-22.98564,22.9856
				c-2.19986-1.28769-4.32999-2.74176-6.39028-4.34064c-1.97986-1.53992-3.87391-3.21933-5.69274-5.03818
				c-3.70749-3.69675-6.83028-7.76385-9.37881-12.07227l20.11513-20.11508l7.03949-7.05023h0.01074l3.68069-3.68069
				l70.12665-70.13725l32.97612-32.97607l4.20117-4.19043c5.43523-5.4352,8.37549-12.43178,8.81546-19.55709
				c0.52579-8.40236-2.4091-16.97098-8.81006-23.37193c-1.1644-1.16439-2.39301-2.21059-3.68613-3.13885
				c-0.51514-0.37562-1.04085-0.72966-1.56668-1.06235c-0.26823-0.17163-0.5312-0.33806-0.79945-0.48821l-0.00537-0.00537
				c-4.7377-2.78467-10.07097-4.17971-15.41495-4.17971c-2.6398,0.00003-5.27429,0.33796-7.84438,1.01938
				c-0.65994,0.1771-1.30374,0.37029-1.94766,0.59556c-0.97646,0.32201-1.92615,0.70294-2.87045,1.13217
				c-0.93358,0.42926-1.85115,0.90669-2.75784,1.43797c-2.1516,1.27158-4.18506,2.83295-6.04152,4.68941l-64.31317,64.31305
				c-5.92651,5.92651-15.5353,5.92651-21.46182-0.00002l-0.00002-0.00002c-5.92651-5.92651-5.92651-15.53529,0.00001-21.46181
				l64.53316-64.53305c1.74915-1.72766,3.58412-3.32659,5.48343-4.8075c1.01941-0.79411,2.06581-1.56123,3.13344-2.28565
				c1.06779-0.72433,2.15152-1.41115,3.25154-2.06029c9.48607-5.6016,20.16339-8.40231,30.84064-8.40234
				C237.19688,64.42837,252.7406,70.35722,264.59296,82.20957z"/>
		</g>
	</g>
	<g class="st1">
		<g class="st2">
			<path class="st3" d="M357.10587,155.84048c-0.0076-0.49324-0.0304-0.98642-0.05316-1.48724
				c-0.03799-0.66014-0.07578-1.3203-0.12894-1.98044c-0.12894-1.4872-0.29587-2.95926-0.52353-4.4313
				c-0.07596-0.49324-0.1593-0.97887-0.25046-1.47206c-0.07578-0.40977-0.1517-0.8119-0.23526-1.22168
				c-0.07578-0.40973-0.16693-0.81187-0.25787-1.22165c-0.07596-0.34146-0.15173-0.69048-0.24286-1.03954
				c-0.10635-0.46284-0.22769-0.91815-0.34903-1.381c-2.66333-9.97052-7.89911-19.39469-15.71448-27.21023l-0.04559-0.04552
				c2.84546,19.96378-3.02002,42.37842-16.0484,59.02626l-5.37231,5.40257l-4.19614,4.20374l-32.97708,32.97696l-22.22504,22.22498
				l-37.1808,37.1731l-37.1808,37.18069c20.25208,5.41019,42.76553,0.16696,58.647-15.72211l0.01518-0.01514l96.56386-96.56358
				c0.3718-0.3718,0.73602-0.74359,1.09262-1.12299c0.22766-0.23523,0.44757-0.4705,0.66766-0.71327
				c0.27322-0.29594,0.5387-0.59187,0.80435-0.88782c0.33383-0.37939,0.66025-0.75879,0.98645-1.14578
				c0.29587-0.34142,0.58429-0.69048,0.86496-1.04709c0.14432-0.17455,0.28842-0.35664,0.42496-0.53116
				c0.28085-0.35666,0.55392-0.71326,0.81955-1.07751c0.0304-0.02274,0.04559-0.05307,0.06076-0.07585
				c0.34143-0.44766,0.66766-0.89537,0.9863-1.35823c0.25046-0.34906,0.50092-0.70566,0.74359-1.06992
				c1.44943-2.14734,2.74692-4.37064,3.8851-6.647c0.12894-0.25797,0.25787-0.51598,0.37943-0.77394
				c0.29584-0.59187,0.57669-1.1989,0.84213-1.79832c0.13672-0.30353,0.26566-0.60707,0.39459-0.91055
				c0.32642-0.75879,0.62985-1.52518,0.91812-2.28397c0.34161-0.9257,0.66782-1.85146,0.97147-2.78474
				c0.12134-0.37939,0.24268-0.75879,0.35641-1.13818c0.07596-0.25801,0.15192-0.52357,0.22769-0.78159
				c0.09113-0.31868,0.1821-0.63734,0.26562-0.96362c0.10617-0.36426,0.1973-0.72845,0.28067-1.10027
				c0.05316-0.19728,0.10632-0.40218,0.15192-0.60701c0.09094-0.38699,0.1821-0.77399,0.26547-1.16098
				c0.08353-0.38699,0.1669-0.77397,0.24286-1.16092c0.04556-0.23528,0.09113-0.47804,0.13654-0.71327
				c0.09872-0.53876,0.1897-1.07751,0.27322-1.62381c0.06079-0.37181,0.11377-0.75121,0.16693-1.1306
				c0.11374-0.8271,0.21249-1.66174,0.28842-2.48885c0.05301-0.48564,0.09097-0.96368,0.12137-1.44928
				c0.02277-0.31873,0.04538-0.64499,0.06058-0.96367c0.02277-0.28075,0.03036-0.56151,0.04556-0.84225
				c0.0076-0.15176,0.0076-0.30353,0.0152-0.45529c0.0152-0.31108,0.02277-0.61462,0.02277-0.91811
				c0.0076-0.39459,0.0152-0.78917,0.0152-1.18372C357.12863,156.8269,357.12103,156.33371,357.10587,155.84048z"/>
		</g>
		<g class="st2">
			<path class="st3" d="M264.2308,109.96231c4.06702,0.00003,7.87115,1.57211,10.73636,4.43731
				c5.92349,5.91275,5.91809,15.53301-0.00537,21.44572v0.01074l-0.00003,0.00002c-5.888,5.88799-15.43433,5.88799-21.32233-0.00002
				l-0.13951-0.13951c-5.888-5.888-5.88799-15.43433,0.00002-21.32231v-0.00001
				C256.35974,111.53445,260.17447,109.96231,264.2308,109.96231z"/>
		</g>
		<g class="st2">
			<path class="st3" d="M241.42772,16.47465l2.6505,2.65051c3.07446,3.26768,5.78935,6.87318,8.08041,10.76314L113.99789,168.04878
				c-0.55263,0.55263-1.0838,1.12677-1.58289,1.71152c-0.17166,0.19315-0.33799,0.39171-0.49358,0.59026
				c-0.56867,0.69757-1.09988,1.41112-1.59352,2.14081l-0.32198,0.48285c-0.01608,0.01607-0.02682,0.03755-0.03219,0.05367
				c-0.23065,0.3488-0.45071,0.69751-0.65988,1.05705c-0.37559,0.64386-0.73506,1.30383-1.06245,1.97441
				c-0.11263,0.22003-0.21464,0.43994-0.32188,0.66534c-0.10725,0.2254-0.20389,0.45068-0.30043,0.67612
				c-0.14488,0.32722-0.28442,0.65985-0.40775,0.998c-0.0162,0.02669-0.02679,0.04828-0.03766,0.08037
				c-0.16083,0.40788-0.3057,0.82103-0.44534,1.23941c-0.12877,0.37556-0.2574,0.76199-0.36485,1.14819
				c-0.03216,0.08586-0.05361,0.17177-0.07503,0.25763c-0.11269,0.39169-0.21997,0.78874-0.31131,1.18031
				c-0.09107,0.37035-0.1769,0.74593-0.25213,1.12138c-0.02145,0.09665-0.04286,0.19325-0.05904,0.28436
				c-0.06976,0.38098-0.13947,0.76195-0.19308,1.14827c-0.02158,0.09651-0.03226,0.19312-0.0483,0.2951
				c-0.04827,0.34875-0.0912,0.69218-0.12873,1.04095c-0.1717,1.51306-0.21467,3.03677-0.15569,4.55521
				c0.00537,0.26291,0.02148,0.5258,0.04297,0.78334c0.01608,0.26292,0.03219,0.52583,0.05901,0.78877
				c0.02685,0.26289,0.05367,0.52583,0.0859,0.78337c0.02145,0.21458,0.04823,0.42386,0.08579,0.62234
				c0.14481,1.11061,0.36478,2.21053,0.63843,3.29973c0.05904,0.24146,0.12346,0.47754,0.19321,0.71902
				c0.06979,0.2522,0.14481,0.50963,0.2253,0.76186c0.06441,0.21458,0.13417,0.4346,0.2093,0.64923
				c0.25753,0.79407,0.55262,1.57207,0.89065,2.33936c0.10201,0.2522,0.20936,0.49905,0.32732,0.73503
				c0.44001,0.97655,0.94426,1.93155,1.50236,2.85446c0.83154,1.40031,1.78667,2.74174,2.87048,4.00795
				c0.53658,0.64394,1.11062,1.27161,1.71698,1.87798c0.27901,0.27902,0.5634,0.55266,0.84766,0.81543
				c11.88988,11.00999,30.51884,10.74176,42.07605-0.81541l64.45535-64.45525c5.92651-5.92651,15.53529-5.9265,21.46182,0.00002
				l0.00002,0.00002c5.92651,5.92651,5.92651,15.53529,0,21.46181l-64.45537,64.45525
				c-3.70752,3.7075-7.76924,6.83551-12.08302,9.3788c-4.78065,2.82755-9.86177,4.93616-15.09836,6.33127
				c-19.86836,5.32788-41.92036,0.38098-57.75391-14.81947c-0.25216-0.24142-0.50432-0.48283-0.75124-0.72977l-0.15549-0.16623
				c-0.34346-0.34346-0.68142-0.69215-1.01939-1.04086c-0.0913-0.09131-0.18247-0.18248-0.26293-0.27361
				c-0.93896-0.99266-1.82964-2.00137-2.68276-3.03691c-0.34873-0.42386-0.68686-0.84784-1.01952-1.27704
				c-0.19308-0.2468-0.39157-0.49892-0.57944-0.75117c-0.15028-0.19319-0.29506-0.3916-0.43457-0.58482
				c-0.26283-0.34863-0.5204-0.7028-0.76189-1.06232c-0.20386-0.27898-0.40247-0.56346-0.59025-0.85852
				c-0.35951-0.52051-0.70818-1.04083-1.0355-1.57205c-0.17163-0.26823-0.34343-0.53658-0.50432-0.80481
				c-0.61167-0.99797-1.19652-2.01202-1.7384-3.04755c-0.18778-0.33803-0.37022-0.69214-0.54726-1.04091
				c-0.22003-0.42392-0.42936-0.84781-0.63315-1.27698c-0.17707-0.35947-0.3434-0.71895-0.50436-1.0838
				c-0.0806-0.15572-0.15556-0.31654-0.2147-0.48297c-0.13407-0.28432-0.2574-0.56863-0.37552-0.85843
				c-0.06435-0.12872-0.12347-0.26295-0.1717-0.39706c-0.13947-0.32188-0.26834-0.64389-0.39707-0.97652
				c-0.32732-0.79948-0.62778-1.61507-0.91203-2.43587c-0.28439-0.82094-0.5527-1.6472-0.79948-2.47351
				c-0.1288-0.41849-0.25219-0.83163-0.36488-1.24475c-0.11803-0.41852-0.22534-0.83701-0.33263-1.25554
				c-0.10207-0.39175-0.19312-0.78329-0.28982-1.18044c-0.02135-0.06432-0.0375-0.13411-0.04827-0.19852
				c-0.0858-0.37556-0.1664-0.75658-0.24683-1.13751c-0.0912-0.42386-0.17703-0.84235-0.25749-1.2662
				c-0.10201-0.5312-0.19849-1.05695-0.27901-1.58815c-0.17164-1.06232-0.31121-2.12474-0.42393-3.19252
				c-0.05891-0.53108-0.11259-1.06766-0.15018-1.60957c-0.0375-0.42386-0.06979-0.8532-0.09121-1.28239
				c-0.02145-0.42915-0.0482-0.85301-0.06441-1.28769c-0.01604-0.42381-0.02685-0.85315-0.03753-1.28235
				c-0.00533-0.4238-0.01077-0.84775-0.00533-1.28232c-0.00007-0.64389,0.01074-1.28766,0.03216-1.93155
				c0.02679-0.63852,0.06432-1.2878,0.10198-1.92618c0.03213-0.42931,0.06438-0.85846,0.10191-1.28242
				c0.07512-0.85846,0.16636-1.71155,0.27905-2.56461c0.10188-0.74583,0.21454-1.49171,0.33266-2.23204
				c0.12337-0.74585,0.26284-1.48631,0.41856-2.22128c0.08043-0.39166,0.16627-0.78874,0.26284-1.17506
				c0.07513-0.3434,0.15559-0.69214,0.24146-1.0248c0.08046-0.37021,0.1824-0.74043,0.27901-1.10532
				c0.09657-0.36484,0.19852-0.72432,0.30583-1.08916c0.338-1.19653,0.71896-2.38231,1.13748-3.56268
				c0.61697-1.76526,1.33063-3.50902,2.12464-5.21527l0.00536-0.00537c0.26841-0.56863,0.53651-1.1375,0.821-1.70074
				c0.25757-0.50435,0.515-0.99809,0.78331-1.4917c0.05373-0.12868,0.11809-0.24673,0.19318-0.36479
				c0.27368-0.49898,0.5527-0.99255,0.84235-1.4863c0.16102-0.27892,0.32195-0.54726,0.48834-0.8208
				c0.33256-0.54739,0.67062-1.08928,1.02476-1.62575c0.2253-0.35422,0.45609-0.70288,0.69747-1.05168l0.49902-0.72432
				c0.0912-0.13417,0.18774-0.27368,0.28982-0.40771c0.39161-0.54198,0.78871-1.07846,1.19643-1.61508
				c0.23067-0.29512,0.46149-0.60086,0.69753-0.89061c0.2468-0.32198,0.5043-0.63319,0.7672-0.9498
				c0.49905-0.6062,1.01408-1.20715,1.54526-1.79204c0.29506-0.33803,0.60626-0.67072,0.91744-1.00337
				c0.23084-0.24132,0.46155-0.48277,0.68689-0.71886c0.11269-0.12343,0.22534-0.24683,0.34877-0.35951L230.71291,8.42109
				C234.58676,10.70678,238.17615,13.40556,241.42772,16.47465z"/>
		</g>
		<g class="st2">
			<path class="st4" d="M113.9854,210.95099l0.01071-0.01071l0.84779,0.84778c-0.28436-0.26292-0.56874-0.53658-0.84776-0.81558
				c-0.60623-0.60625-1.1804-1.23405-1.71702-1.87794C112.81573,209.72768,113.38454,210.35013,113.9854,210.95099z"/>
		</g>
		<g class="st2">
			<path class="st4" d="M109.40865,205.08658c0.8317,1.38966,1.78671,2.73096,2.87047,4.00795
				C111.19536,207.82828,110.24036,206.48698,109.40865,205.08658z"/>
		</g>
		<g class="st2">
			<path class="st4" d="M107.90643,202.23224c0.44524,0.97105,0.94429,1.92078,1.50222,2.85434
				C108.85072,204.16376,108.34631,203.20866,107.90643,202.23224z"/>
		</g>
		<g class="st2">
			<path class="st4" d="M92.53426,232.43428l0.161,0.161l-0.15562-0.16637c-0.34333-0.34334-0.68142-0.69217-1.01942-1.04083
				C91.84747,231.73674,92.19093,232.09094,92.53426,232.43428z M75.53649,199.22208
				c-0.17163-1.06232-0.3112-2.12474-0.42379-3.1924C75.21992,197.10271,75.35949,198.16512,75.53649,199.22208z M77.11938,172.7328
				c0.338-1.19652,0.71893-2.38226,1.13745-3.56264C77.83293,170.34517,77.452,171.53091,77.11938,172.7328z M92.53437,146.58696
				c-0.11806,0.11806-0.23608,0.23608-0.34876,0.35951l0.72436-0.72437C92.78117,146.34016,92.65777,146.46356,92.53437,146.58696z"
				/>
		</g>
	</g>
	<g>
		<g>
			<path class="st5" d="M314.54153,155.84048c-0.0076-0.49324-0.03036-0.98642-0.05316-1.48724
				c-0.03796-0.66014-0.07578-1.3203-0.12894-1.98044c-0.12894-1.4872-0.29584-2.95926-0.52353-4.4313
				c-0.07593-0.49324-0.1593-0.97887-0.25046-1.47206c-0.07574-0.40977-0.1517-0.8119-0.23526-1.22168
				c-0.07578-0.40973-0.1669-0.81187-0.25787-1.22165c-0.07593-0.34146-0.1517-0.69048-0.24286-1.03954
				c-0.10632-0.46284-0.22766-0.91815-0.349-1.381c-2.66336-9.97052-7.89911-19.39469-15.71451-27.21023l-0.04556-0.04552
				c2.84543,19.96378-3.02002,42.37842-16.04843,59.02626l-5.37231,5.40257l-4.19614,4.20374l-32.97707,32.97696l-22.22504,22.22498
				l-37.1808,37.1731l-37.18082,37.18069c20.25209,5.41019,42.76555,0.16696,58.647-15.72211l0.0152-0.01514l96.56387-96.56358
				c0.3718-0.3718,0.73599-0.74359,1.09259-1.12299c0.22769-0.23523,0.44757-0.4705,0.66766-0.71327
				c0.27325-0.29594,0.5387-0.59187,0.80435-0.88782c0.33383-0.37939,0.66025-0.75879,0.98648-1.14578
				c0.29584-0.34142,0.58429-0.69048,0.86493-1.04709c0.14432-0.17455,0.28845-0.35664,0.42499-0.53116
				c0.28082-0.35666,0.55389-0.71326,0.81955-1.07751c0.03036-0.02274,0.04556-0.05307,0.06076-0.07585
				c0.3414-0.44766,0.66763-0.89537,0.98627-1.35823c0.25046-0.34906,0.50095-0.70566,0.74362-1.06992
				c1.4494-2.14734,2.74692-4.37064,3.8851-6.647c0.12894-0.25797,0.25787-0.51598,0.37939-0.77394
				c0.29584-0.59187,0.57669-1.1989,0.84216-1.79832c0.13672-0.30353,0.26566-0.60707,0.39459-0.91055
				c0.32639-0.75879,0.62985-1.52518,0.91809-2.28397c0.34161-0.9257,0.66785-1.85146,0.97147-2.78474
				c0.12134-0.37939,0.24268-0.75879,0.35641-1.13818c0.07596-0.25801,0.15192-0.52357,0.22769-0.78159
				c0.09116-0.31868,0.1821-0.63734,0.26566-0.96362c0.10614-0.36426,0.1973-0.72845,0.28064-1.10027
				c0.05319-0.19728,0.10635-0.40218,0.15192-0.60701c0.09097-0.38699,0.1821-0.77399,0.26547-1.16098
				c0.08356-0.38699,0.1669-0.77397,0.24286-1.16092c0.04556-0.23528,0.09116-0.47804,0.13654-0.71327
				c0.09875-0.53876,0.1897-1.07751,0.27325-1.62381c0.06076-0.37181,0.11374-0.75121,0.1669-1.1306
				c0.11374-0.8271,0.21249-1.66174,0.28845-2.48885c0.05298-0.48564,0.09094-0.96368,0.12134-1.44928
				c0.0228-0.31873,0.04538-0.64499,0.06058-0.96367c0.0228-0.28075,0.0304-0.56151,0.04556-0.84225
				c0.0076-0.15176,0.0076-0.30353,0.0152-0.45529c0.0152-0.31108,0.0228-0.61462,0.0228-0.91811
				c0.0076-0.39459,0.0152-0.78917,0.0152-1.18372C314.56433,156.8269,314.55673,156.33371,314.54153,155.84048z"/>
		</g>
		<g>
			<path class="st5" d="M221.66649,109.96231c4.06703,0.00003,7.87115,1.57211,10.73636,4.43731
				c5.92348,5.91275,5.91808,15.53301-0.00539,21.44572v0.01074l-0.00002,0.00002c-5.888,5.88799-15.43433,5.88799-21.32233-0.00002
				l-0.13951-0.13951c-5.888-5.888-5.888-15.43433,0-21.32231l0.00002-0.00001
				C213.79543,111.53445,217.61017,109.96231,221.66649,109.96231z"/>
		</g>
		<g>
			<path class="st5" d="M198.86339,16.47465l2.65051,2.65051c3.07446,3.26768,5.78935,6.87318,8.08041,10.76314L71.43357,168.04878
				c-0.55262,0.55263-1.0838,1.12677-1.58288,1.71152c-0.17167,0.19315-0.338,0.39171-0.49358,0.59026
				c-0.56867,0.69757-1.09988,1.41112-1.59353,2.14081l-0.32198,0.48285c-0.01608,0.01607-0.02682,0.03755-0.0322,0.05367
				c-0.23064,0.3488-0.45071,0.69751-0.65987,1.05705c-0.37559,0.64386-0.73507,1.30383-1.06245,1.97441
				c-0.11262,0.22003-0.21463,0.43994-0.32188,0.66534c-0.10725,0.2254-0.20389,0.45068-0.30043,0.67612
				c-0.14487,0.32722-0.28442,0.65985-0.40775,0.998c-0.01621,0.02669-0.02679,0.04828-0.03766,0.08037
				c-0.16083,0.40788-0.30571,0.82103-0.44534,1.23941c-0.12877,0.37556-0.2574,0.76199-0.36485,1.14819
				c-0.03216,0.08586-0.05361,0.17177-0.07502,0.25763c-0.11269,0.39169-0.21997,0.78874-0.31131,1.18031
				c-0.09107,0.37035-0.17691,0.74593-0.25213,1.12138c-0.02145,0.09665-0.04287,0.19325-0.05904,0.28436
				c-0.06976,0.38098-0.13948,0.76195-0.19308,1.14827c-0.02158,0.09651-0.03226,0.19312-0.04831,0.2951
				c-0.04827,0.34875-0.0912,0.69218-0.12873,1.04095c-0.1717,1.51306-0.21466,3.03677-0.15569,4.55521
				c0.00537,0.26291,0.02148,0.5258,0.04296,0.78334c0.01608,0.26292,0.03219,0.52583,0.05901,0.78877
				c0.02686,0.26289,0.05368,0.52583,0.0859,0.78337c0.02145,0.21458,0.04824,0.42386,0.0858,0.62234
				c0.14481,1.11061,0.36478,2.21053,0.63842,3.29973c0.05904,0.24146,0.12346,0.47754,0.19321,0.71902
				c0.06979,0.2522,0.14481,0.50963,0.22531,0.76186c0.06441,0.21458,0.13417,0.4346,0.20929,0.64923
				c0.25753,0.79407,0.55263,1.57207,0.89066,2.33936c0.10201,0.2522,0.20936,0.49905,0.32732,0.73503
				c0.44,0.97655,0.94426,1.93155,1.50235,2.85446c0.83154,1.40031,1.78667,2.74174,2.87048,4.00795
				c0.53658,0.64394,1.11062,1.27161,1.71699,1.87798c0.27901,0.27902,0.5634,0.55266,0.84766,0.81543
				c11.88987,11.00999,30.51884,10.74176,42.07604-0.81541l64.45535-64.45525c5.92653-5.92651,15.53531-5.9265,21.46184,0.00002
				l0.00002,0.00002c5.92651,5.92651,5.92651,15.53529-0.00002,21.46181l-64.45535,64.45525
				c-3.70752,3.7075-7.76924,6.83551-12.08303,9.3788c-4.78065,2.82755-9.86176,4.93616-15.09836,6.33127
				c-19.86836,5.32788-41.92036,0.38098-57.7539-14.81947c-0.25216-0.24142-0.50432-0.48283-0.75124-0.72977l-0.15549-0.16623
				c-0.34346-0.34346-0.68142-0.69215-1.01938-1.04086c-0.0913-0.09131-0.18247-0.18248-0.26294-0.27361
				c-0.93895-0.99266-1.82964-2.00137-2.68276-3.03691c-0.34874-0.42386-0.68686-0.84784-1.01952-1.27704
				c-0.19308-0.2468-0.39157-0.49892-0.57944-0.75117c-0.15028-0.19319-0.29506-0.3916-0.43457-0.58482
				c-0.26284-0.34863-0.5204-0.7028-0.76189-1.06232c-0.20386-0.27898-0.40248-0.56346-0.59025-0.85852
				c-0.35951-0.52051-0.70818-1.04083-1.0355-1.57205c-0.17163-0.26823-0.34343-0.53658-0.50432-0.80481
				c-0.61167-0.99797-1.19652-2.01202-1.7384-3.04755c-0.18778-0.33803-0.37022-0.69214-0.54726-1.04091
				c-0.22003-0.42392-0.42936-0.84781-0.63315-1.27698c-0.17707-0.35947-0.3434-0.71895-0.50435-1.0838
				c-0.08059-0.15572-0.15556-0.31654-0.2147-0.48297c-0.13407-0.28432-0.2574-0.56863-0.37552-0.85843
				c-0.06435-0.12872-0.12346-0.26295-0.1717-0.39706c-0.13948-0.32188-0.26834-0.64389-0.39707-0.97652
				c-0.32732-0.79948-0.62778-1.61507-0.91204-2.43587c-0.28439-0.82094-0.55269-1.6472-0.79948-2.47351
				c-0.1288-0.41849-0.25219-0.83163-0.36488-1.24475c-0.11802-0.41852-0.22534-0.83701-0.33262-1.25554
				c-0.10207-0.39175-0.19312-0.78329-0.28982-1.18044c-0.02135-0.06432-0.0375-0.13411-0.04827-0.19852
				c-0.0858-0.37556-0.16639-0.75658-0.24682-1.13751c-0.09121-0.42386-0.17704-0.84235-0.2575-1.2662
				c-0.10201-0.5312-0.19849-1.05695-0.27901-1.58815c-0.17163-1.06232-0.3112-2.12474-0.42392-3.19252
				c-0.05891-0.53108-0.11259-1.06766-0.15018-1.60957c-0.03749-0.42386-0.06979-0.8532-0.0912-1.28239
				c-0.02145-0.42915-0.04821-0.85301-0.06441-1.28769c-0.01605-0.42381-0.02685-0.85315-0.03753-1.28235
				c-0.00534-0.4238-0.01077-0.84775-0.00534-1.28232c-0.00006-0.64389,0.01074-1.28766,0.03216-1.93155
				c0.02679-0.63852,0.06432-1.2878,0.10198-1.92618c0.03212-0.42931,0.06438-0.85846,0.10191-1.28242
				c0.07512-0.85846,0.16636-1.71155,0.27905-2.56461c0.10188-0.74583,0.21453-1.49171,0.33266-2.23204
				c0.12336-0.74585,0.26284-1.48631,0.41856-2.22128c0.08043-0.39166,0.16626-0.78874,0.26284-1.17506
				c0.07512-0.3434,0.15559-0.69214,0.24145-1.0248c0.08046-0.37021,0.18241-0.74043,0.27901-1.10532
				c0.09658-0.36484,0.19852-0.72432,0.30584-1.08916c0.33799-1.19653,0.71895-2.38231,1.13747-3.56268
				c0.61698-1.76526,1.33063-3.50902,2.12464-5.21527l0.00537-0.00537c0.26841-0.56863,0.53651-1.1375,0.821-1.70074
				c0.25756-0.50435,0.515-0.99809,0.7833-1.4917c0.05374-0.12868,0.11809-0.24673,0.19318-0.36479
				c0.27367-0.49898,0.55269-0.99255,0.84235-1.4863c0.16102-0.27892,0.32195-0.54726,0.48834-0.8208
				c0.33256-0.54739,0.67062-1.08928,1.02476-1.62575c0.22531-0.35422,0.45609-0.70288,0.69747-1.05168l0.49902-0.72432
				c0.0912-0.13417,0.18774-0.27368,0.28982-0.40771c0.3916-0.54198,0.78871-1.07846,1.19642-1.61508
				c0.23068-0.29512,0.46149-0.60086,0.69754-0.89061c0.24679-0.32198,0.50429-0.63319,0.76719-0.9498
				c0.49905-0.6062,1.01408-1.20715,1.54526-1.79204c0.29506-0.33803,0.60627-0.67072,0.91744-1.00337
				c0.23084-0.24132,0.46156-0.48277,0.68689-0.71886c0.11269-0.12343,0.22534-0.24683,0.34877-0.35951L188.14859,8.42109
				C192.02243,10.70678,195.61183,13.40556,198.86339,16.47465z"/>
		</g>
		<g>
			<path class="st5" d="M71.42108,210.95099l0.0107-0.01071l0.84779,0.84778c-0.28435-0.26292-0.56873-0.53658-0.84775-0.81558
				c-0.60623-0.60625-1.1804-1.23405-1.71702-1.87794C70.25142,209.72768,70.82022,210.35013,71.42108,210.95099z"/>
		</g>
		<g>
			<path class="st5" d="M66.84433,205.08658c0.83171,1.38966,1.78671,2.73096,2.87048,4.00795
				C68.63103,207.82828,67.67604,206.48698,66.84433,205.08658z"/>
		</g>
		<g>
			<path class="st5" d="M65.34211,202.23224c0.44524,0.97105,0.94429,1.92078,1.50222,2.85434
				C66.2864,204.16376,65.78198,203.20866,65.34211,202.23224z"/>
		</g>
		<g>
			<path class="st5" d="M49.96995,232.43428l0.16099,0.161l-0.15562-0.16637c-0.34333-0.34334-0.68143-0.69217-1.01942-1.04083
				C49.28315,231.73674,49.62661,232.09094,49.96995,232.43428z M32.97218,199.22208
				c-0.17163-1.06232-0.3112-2.12474-0.42379-3.1924C32.6556,197.10271,32.79517,198.16512,32.97218,199.22208z M34.55506,172.7328
				c0.33799-1.19652,0.71892-2.38226,1.13744-3.56264C35.26861,170.34517,34.88768,171.53091,34.55506,172.7328z
				 M49.97005,146.58696c-0.11806,0.11806-0.23608,0.23608-0.34877,0.35951l0.72436-0.72437
				C50.21685,146.34016,50.09345,146.46356,49.97005,146.58696z"/>
		</g>
	</g>
</g>
<g id="name_3_">
	<g>
		<path class="st0" d="M437.93698,251.46146c0,15.03571-6.95148,23.64011-21.46405,23.64011
			c-11.55649,0-18.76981-6.4313-20.50769-15.90515h6.95248c1.47705,5.56238,5.30057,9.90805,13.81604,9.90805
			c9.29797,0,14.33771-6.08353,14.33771-16.77406v-5.30156h-0.17291c-3.04202,3.73708-8.1687,7.21381-15.20712,7.21381
			c-11.38361,0-21.37711-8.77827-21.37711-22.33646c0-12.86311,9.12405-22.16257,21.29016-22.16257
			c7.90787,0,12.68677,4.17178,15.29407,7.3877h0.17291v-5.9971h6.86551V251.46146z M416.55988,248.15862
			c8.08176,0,15.12018-6.60521,15.12018-15.99159c0-9.90805-6.6037-16.4263-14.94629-16.4263
			c-10.16641,0-15.38004,8.16968-15.38004,16.16547C401.35373,239.90199,406.56735,248.15862,416.55988,248.15862z"/>
		<path class="st0" d="M491.99084,252.76511h-6.86554v-5.56238h-0.17288c-3.04202,3.65013-8.1687,7.03992-15.20712,7.03992
			c-11.29666,0-21.37714-8.77827-21.37714-22.33646c0-12.86311,9.38492-22.16257,21.81186-22.16257
			c7.55908,0,11.99121,3.99791,14.85934,7.3877h0.08594v-5.9971h6.86554V252.76511z M470.70068,248.15862
			c7.82092,0,15.03323-6.60521,15.03323-15.99159c0-9.90805-6.69067-16.4263-14.85934-16.4263
			c-10.42725,0-15.38101,8.16968-15.38101,16.16547C455.49356,239.90199,460.44733,248.15862,470.70068,248.15862z"/>
		<path class="st0" d="M505.29016,211.13422h6.86456v5.21461h0.17389c2.78021-3.73708,7.03845-6.60521,12.4259-6.60521
			c6.51776,0,11.81836,3.73708,13.55621,8.6044c2.08563-4.17178,7.12537-8.6044,14.33771-8.6044
			c9.38489,0,15.90265,6.51826,15.90265,18.77278v24.2487h-6.86554v-24.76987c0-6.43181-2.95404-12.08113-9.99249-12.08113
			c-5.8222,0-11.29669,4.17229-11.29669,13.73256v23.11844h-6.95148v-24.76987c0-6.86603-3.73657-12.08113-9.90656-12.08113
			c-6.95148,0-11.38361,5.04121-11.38361,13.73256v23.11844h-6.86456V211.13422z"/>
		<path class="st0" d="M580.54724,193.0565h8.51648v8.08273h-8.51648V193.0565z M581.32977,211.13422h6.8645v41.63089h-6.8645
			V211.13422z"/>
		<path class="st0" d="M601.49066,211.13422h6.8645v5.21461h0.17389c3.82355-4.95378,8.60242-6.60521,13.12152-6.60521
			c7.56006,0,16.42334,4.69345,16.42334,18.77278v24.2487h-6.86456v-23.81398c0-8.43051-4.08435-13.03702-10.60211-13.03702
			c-7.47314,0-12.25208,5.04121-12.25208,14.68843v22.16257h-6.8645V211.13422z"/>
		<path class="st0" d="M691.60608,251.46146c0,15.03571-6.95148,23.64011-21.46405,23.64011
			c-11.55652,0-18.76978-6.4313-20.50769-15.90515h6.95251c1.47705,5.56238,5.30054,9.90805,13.81604,9.90805
			c9.29791,0,14.33765-6.08353,14.33765-16.77406v-5.30156h-0.17285c-3.04205,3.73708-8.1687,7.21381-15.20715,7.21381
			c-11.38361,0-21.37714-8.77827-21.37714-22.33646c0-12.86311,9.12408-22.16257,21.29022-22.16257
			c7.90784,0,12.68677,4.17178,15.29407,7.3877h0.17285v-5.9971h6.86554V251.46146z M670.229,248.15862
			c8.08173,0,15.12018-6.60521,15.12018-15.99159c0-9.90805-6.60376-16.4263-14.94629-16.4263
			c-10.16644,0-15.38007,8.16968-15.38007,16.16547C655.02283,239.90199,660.23645,248.15862,670.229,248.15862z"/>
		<path class="st0" d="M768.69,251.46146c0,15.03571-6.95154,23.64011-21.46405,23.64011
			c-11.55652,0-18.76984-6.4313-20.50769-15.90515h6.95245c1.47705,5.56238,5.30054,9.90805,13.81604,9.90805
			c9.29797,0,14.33771-6.08353,14.33771-16.77406v-5.30156h-0.17291c-3.04199,3.73708-8.1687,7.21381-15.20715,7.21381
			c-11.38361,0-21.37708-8.77827-21.37708-22.33646c0-12.86311,9.12408-22.16257,21.29016-22.16257
			c7.90784,0,12.68677,4.17178,15.29407,7.3877h0.17291v-5.9971H768.69V251.46146z M747.31287,248.15862
			c8.08173,0,15.12018-6.60521,15.12018-15.99159c0-9.90805-6.6037-16.4263-14.94629-16.4263
			c-10.16638,0-15.38,8.16968-15.38,16.16547C732.10675,239.90199,737.32037,248.15862,747.31287,248.15862z"/>
		<path class="st0" d="M803.53931,216.34883c-1.0423-0.17389-2.17261-0.43472-3.99738-0.43472
			c-5.99512,0-10.68811,4.25873-10.68811,14.77538v22.07562h-6.8645v-41.63089h6.8645v5.21461h0.17389
			c1.39014-2.78119,5.5614-6.60521,11.03583-6.60521c1.47705,0,2.52039,0.08694,3.47577,0.26083V216.34883z"/>
		<path class="st0" d="M829.78326,209.74362c12.94757,0,22.24554,9.56029,22.24554,22.16257
			c0,12.25453-9.38489,22.33646-22.24554,22.33646c-12.59985,0-22.24554-9.73416-22.24554-22.33646
			C807.53772,219.04308,817.27039,209.74362,829.78326,209.74362z M829.78326,247.98473
			c8.77728,0,15.12018-6.95297,15.12018-16.07854c0-8.77827-5.99609-15.99208-15.12018-15.99208
			c-8.86328,0-15.12018,6.77959-15.12018,15.99208C814.66309,241.29259,821.78943,247.98473,829.78326,247.98473z"/>
		<path class="st0" d="M897.39429,252.76511h-6.8645v-5.12766h-0.17389c-3.64966,4.95377-8.25568,6.60519-12.59985,6.60519
			c-7.30023,0-15.81573-4.69344-15.81573-18.77327v-24.33516h6.86456v23.814c0,8.43051,3.99738,13.03651,10.08044,13.03651
			c7.12537,0,11.64447-4.95378,11.64447-14.601v-22.24951h6.8645V252.76511z"/>
		<path class="st0" d="M910.69263,211.13422h6.86456v5.91016h0.17389c2.78021-3.30284,7.21228-7.30075,15.64185-7.30075
			c13.29437,0,20.94141,10.86394,20.94141,22.16257c0,12.60229-9.03717,22.33646-21.20227,22.33646
			c-7.12537,0-12.33997-3.38979-15.38098-7.03992h-0.17389v25.98657h-6.86456V211.13422z M931.8949,215.74072
			c-8.34161,0-14.94629,6.51825-14.94629,16.4263c0,9.47333,7.12634,15.99159,15.12018,15.99159
			c10.08044,0,15.12018-8.25662,15.12018-16.25243C947.18896,223.82346,942.14923,215.74072,931.8949,215.74072z"/>
	</g>
	<g>
		<path class="st5" d="M424.14557,103.61547c-3.41876,0-7.08493-0.43937-10.99753-1.32302
			c-3.91458-0.8812-7.46982-2.5891-10.66571-5.12666c-1.87628-1.54247-3.4472-3.39028-4.71378-5.54001
			c-1.26852-2.14973-2.31519-4.4649-3.14188-6.94551c-0.82672-2.48061-1.43347-5.01521-1.81836-7.60677
			c-0.38782-2.5891-0.57928-5.15267-0.57928-7.68974c0-1.10113,0-2.15022,0-3.14236s0.10898-1.98429,0.33087-2.97644
			c0.76978-9.59155,4.35345-17.03338,10.74915-22.32547c1.87335-1.54246,4.18851-3.03093,6.9455-4.4649
			c2.75406-1.43151,5.45706-2.14973,8.10309-2.14973h54.73639c1.10159,0,1.65439,0.55278,1.65439,1.65341v18.19096
			c0,1.10358-0.5528,1.6539-1.65439,1.6539h-47.79086c-1.54541,0-2.95044,0.68974-4.21698,2.06725
			c-1.26855,1.37948-2.17773,2.67403-2.72855,3.88611c-0.55276,1.10358-0.88364,2.20668-0.99261,3.30731
			c-0.11096,1.10358-0.16495,2.20668-0.16495,3.30781c0,1.76485,0.10898,3.58369,0.33087,5.45704
			c0.21994,1.8758,0.99164,3.5297,2.31516,4.96122c1.21161,1.21404,2.89349,1.92979,5.0437,2.14924
			c2.15021,0.22238,4.49091,0.33088,7.02798,0.33088h18.52234c3.4158,0,6.99951,0.4703,10.74814,1.40549
			c3.7467,0.93815,7.22043,2.72901,10.41827,5.37457c1.87332,1.54541,3.44427,3.41875,4.7128,5.62297
			c1.26559,2.20668,2.31519,4.57584,3.14188,7.11095c0.82672,2.53755,1.40601,5.18311,1.73688,7.93765
			c0.3299,2.757,0.49582,5.40304,0.49582,7.93814c0,1.21453,0,2.37212,0,3.47276c0,0.99214-0.11093,1.93029-0.33087,2.81149
			c-0.88367,10.03288-4.4104,17.7511-10.5842,23.15169c-1.87433,1.54492-4.16101,3.0594-6.86105,4.54738
			c-2.703,1.48846-5.26657,2.23268-7.68976,2.23268h-60.19537c-1.10358,0-1.65341-0.55031-1.65341-1.6539V133.0509
			c0-1.10063,0.54984-1.65341,1.65341-1.65341h53.24988c1.65341,0,3.08493-0.79872,4.29947-2.39813
			c1.21158-1.59646,2.09229-3.05891,2.64603-4.38193c0.54984-1.21159,0.88071-2.36917,0.99167-3.47276
			c0.10898-1.10064,0.16592-2.25822,0.16592-3.47276c0-1.76239-0.11194-3.60972-0.33087-5.54001
			c-0.22287-1.92783-0.99265-3.66421-2.31519-5.20913c-1.10358-1.21207-2.6745-2.06725-4.71378-2.56357
			c-2.04126-0.49583-4.43887-0.74374-7.19293-0.74374H424.14557z"/>
		<path class="st5" d="M509.47495,71.20262c0-4.73883,0.66177-9.20373,1.98431-13.39519
			c0.66177-2.42366,1.57095-4.49091,2.72849-6.20127c1.15759-1.7079,2.34167-3.27933,3.55621-4.7133
			c3.41583-3.96858,7.49536-7.054,12.23663-9.26067c4.73932-2.20422,9.81146-3.30732,15.21454-3.30732h43.82227
			c1.10065,0,1.65344,0.55278,1.65344,1.65341v18.19096c0,1.10358-0.5528,1.6539-1.65344,1.6539h-42.82965
			c-4.30042,0.88365-7.49927,3.11634-9.59155,6.69759c-2.09619,3.5837-3.14282,8.24251-3.14282,13.97398v41.83848
			c0.33087,3.86058,1.5719,6.91998,3.72113,9.1782c2.15021,2.26067,5.15271,3.55523,9.01324,3.8861h42.82965
			c1.10065,0,1.65344,0.55278,1.65344,1.65341v18.19096c0,1.10359-0.5528,1.6539-1.65344,1.6539h-42.3338
			c-3.3078,0-6.22974-0.3024-8.76483-0.90967c-2.53711-0.60431-4.74133-1.29454-6.61462-2.06725
			c-4.19147-1.54247-7.93817-4.05154-11.245-7.52431c-3.3078-3.47275-6.0108-7.63278-8.10309-12.4855
			c-0.55374-1.21159-1.10358-2.83653-1.65439-4.87826c-0.55276-2.03829-0.82672-4.54737-0.82672-7.5243V71.20262z"/>
		<path class="st5" d="M619.93933,93.5276c0-6.50368,0.05499-12.12666,0.16595-16.86745
			c0.10797-4.73932,0.43884-8.5994,0.99261-11.57633c0.88074-4.29946,1.81836-8.15758,2.81097-11.57584
			c0.9917-3.4163,2.31519-6.22729,3.96863-8.43397c2.20422-2.86549,4.96118-5.37457,8.26898-7.52479
			c3.30682-2.14973,6.83459-3.66372,10.58325-4.54737c2.646-0.55032,6.11877-0.8812,10.41821-0.99264
			c4.2995-0.10849,9.42566-0.16495,15.37854-0.16495c5.9538,0,11.08002,0.05646,15.37946,0.16495
			c4.30042,0.11144,7.77319,0.44232,10.41827,0.99264c3.74664,0.88365,7.27637,2.39764,10.58417,4.54737
			c3.3078,2.15022,6.06183,4.6593,8.26807,7.52479c1.65436,2.20667,2.97693,5.01767,3.96954,8.43397
			c0.99164,3.41826,1.92731,7.27639,2.81097,11.57584c0.55084,2.97693,0.88171,6.83701,0.99268,11.57633
			c0.10797,4.7408,0.16492,10.36377,0.16492,16.86745v0.99214c0,6.50663-0.05695,12.12911-0.16492,16.86794
			c-0.11096,4.74178-0.44183,8.5994-0.99268,11.57633c-0.88367,4.29946-1.81934,8.15955-2.81097,11.57535
			c-0.99261,3.41876-2.31519,6.22975-3.96954,8.43398c-2.20624,2.86844-4.96027,5.37457-8.26807,7.52429
			c-3.3078,2.15022-6.83752,3.66422-10.58417,4.54787c-2.64508,0.55032-6.11786,0.8812-10.41827,0.99214
			c-4.29944,0.10851-9.42566,0.16545-15.37946,0.16545c-5.95288,0-11.07904-0.05695-15.37854-0.16545
			c-4.29944-0.11095-7.77222-0.44182-10.41821-0.99214c-3.74866-0.88365-7.27643-2.39764-10.58325-4.54787
			c-3.3078-2.14972-6.06476-4.65585-8.26898-7.52429c-1.65344-2.20422-2.97693-5.01521-3.96863-8.43398
			c-0.99261-3.4158-1.93024-7.27589-2.81097-11.57535c-0.55377-2.97693-0.88464-6.83456-0.99261-11.57633
			c-0.11096-4.73883-0.16595-10.36131-0.16595-16.86794V93.5276z M662.77094,54.91347
			c-3.08789,0.16544-5.73389,0.52479-7.93811,1.07511c-3.96863,0.99215-6.7796,2.9509-8.43402,5.8704
			c-1.65338,2.92243-2.4801,7.30486-2.4801,13.14727v38.03534c0,5.84486,0.82672,10.22729,2.4801,13.14678
			c1.65442,2.92244,4.46539,4.87825,8.43402,5.87039c2.20422,0.55327,4.85022,0.90967,7.93811,1.07512
			c3.08392,0.16544,6.33777,0.24791,9.75555,0.24791c3.41577,0,6.66956-0.08247,9.75745-0.24791
			c3.08496-0.16545,5.73096-0.52185,7.93719-1.07512c3.96954-0.99214,6.78052-2.94795,8.43396-5.87039
			c1.65436-2.91949,2.48108-7.30192,2.48108-13.14678V75.00625c0-5.84241-0.82672-10.22484-2.48108-13.14727
			c-1.65344-2.91949-4.46442-4.87825-8.43396-5.8704c-2.20624-0.55032-4.85223-0.90967-7.93719-1.07511
			c-3.08789-0.16544-6.34167-0.24791-9.75745-0.24791C669.1087,54.66556,665.85486,54.74803,662.77094,54.91347z"/>
		<path class="st5" d="M821.35803,34.32486h20.67157c1.10065,0,1.65344,0.55278,1.65344,1.65341v78.55177
			c0,3.96857-0.22192,7.4698-0.6618,10.50073c-0.44177,3.03387-1.04858,5.48551-1.81836,7.35886
			c-0.66174,1.76485-1.62787,3.61217-2.89441,5.54001c-1.26855,1.93028-2.67456,3.72066-4.21698,5.37456
			c-1.65344,1.65392-3.58374,3.0594-5.78796,4.217c-2.20715,1.15758-4.29944,2.12419-6.28375,2.89395
			c-1.98523,0.66127-4.19141,1.24055-6.6156,1.73639c-2.42609,0.49631-5.07214,0.74422-7.93713,0.74422h-19.34906
			c-3.6377,0-7.02795-0.38487-10.16986-1.15758c-3.14185-0.77025-5.81641-1.87334-8.02063-3.30731
			c-2.31512-1.43152-4.29944-2.97693-5.95282-4.63083c-2.09528-2.09279-3.85962-4.24251-5.29114-6.44919
			c-1.43445-2.42366-2.5636-4.98724-3.39026-7.68974c-0.82672-2.70004-1.24005-5.594-1.24005-8.68188V35.97828
			c0-1.10064,0.5498-1.65341,1.65338-1.65341h20.67059c1.10065,0,1.65344,0.55278,1.65344,1.65341v80.70151
			c0,1.32302,0.24835,2.83947,0.7442,4.54787c0.49585,1.71036,1.24005,3.30731,2.23267,4.79578
			c0.9917,1.48797,2.23273,2.75699,3.72119,3.80264c1.48749,1.0491,3.22437,1.57143,5.20862,1.57143h17.36377
			c1.87335,0,3.58173-0.52232,5.12714-1.57143c1.54248-1.04565,2.83655-2.31467,3.88611-3.80264
			c1.04663-1.48846,1.87335-3.08542,2.48016-4.79578c0.6048-1.7084,0.91016-3.27934,0.91016-4.7133V35.97828
			C819.70465,34.87764,820.25446,34.32486,821.35803,34.32486z"/>
		<path class="st5" d="M924.05121,151.24187c0,1.10359-0.5528,1.6539-1.65344,1.6539H901.7262
			c-1.10358,0-1.65338-0.55031-1.65338-1.6539V57.47704c0-1.10113-0.5528-1.6539-1.65344-1.6539h-26.9563
			c-1.1026,0-1.65338-0.55032-1.65338-1.6539V35.97828c0-1.10064,0.55078-1.65341,1.65338-1.65341h81.19781
			c1.10065,0,1.65344,0.55278,1.65344,1.65341v18.19096c0,1.10358-0.5528,1.6539-1.65344,1.6539h-26.95532
			c-1.10358,0-1.65436,0.55277-1.65436,1.6539V151.24187z"/>
	</g>
</g>
</svg>
